G04 ---------------------------- Layer name :BOTTOM LAYER*
G04 EasyEDA v5.7.26, Wed, 24 Oct 2018 10:13:14 GMT*
G04 0b4152e9f63d4235a167ac6b789972a8*
G04 Gerber Generator version 0.2*
G04 Scale: 100 percent, Rotated: No, Reflected: No *
G04 Dimensions in millimeters *
G04 leading zeros omitted , absolute positions ,3 integer and 3 decimal *
%FSLAX33Y33*%
%MOMM*%
G90*
G71D02*

%ADD11C,0.299999*%
%ADD14C,7.000240*%
%ADD15C,1.499997*%
%ADD16R,1.499997X1.499997*%
%ADD17R,1.574800X1.574800*%
%ADD18C,1.574800*%
%ADD19C,1.879600*%
%ADD20C,2.799080*%
%ADD21C,1.651000*%
%ADD22C,1.981200*%

%LPD*%
G54D11*
G01X50292Y19050D02*
G01X46228Y14986D01*
G01X45212Y14986D01*
G01X30734Y26670D02*
G01X37338Y20066D01*
G01X37592Y20066D01*
G01X9652Y28067D02*
G01X7874Y29845D01*
G01X7874Y33528D01*
G01X29972Y9809D02*
G01X37592Y17429D01*
G01X37592Y17526D01*
G01X37592Y17526D02*
G01X30988Y24130D01*
G01X30734Y24130D01*
G01X37592Y17526D02*
G01X40132Y20066D01*
G01X45212Y20066D01*
G01X55372Y19050D02*
G01X50800Y23622D01*
G01X50800Y26162D01*
G01X9652Y23368D02*
G01X7830Y21546D01*
G01X7830Y11381D01*
G01X9306Y9906D01*
G01X52832Y8890D02*
G01X52832Y19423D01*
G01X49649Y22606D01*
G01X45212Y22606D01*
G01X29972Y12349D02*
G01X29718Y12603D01*
G01X29718Y17780D01*
G54D14*
G01X16510Y9906D03*
G01X9306Y9906D03*
G54D15*
G01X45212Y2286D03*
G01X45212Y4826D03*
G01X45212Y7366D03*
G01X45212Y9906D03*
G01X45212Y12446D03*
G01X45212Y14986D03*
G01X45212Y17526D03*
G01X45212Y20066D03*
G01X45212Y22606D03*
G01X45212Y25146D03*
G01X45212Y27686D03*
G01X45212Y30226D03*
G01X45212Y32766D03*
G01X45212Y35306D03*
G01X37592Y2286D03*
G01X37592Y4826D03*
G01X37592Y7366D03*
G01X37592Y9906D03*
G01X37592Y12446D03*
G01X37592Y14986D03*
G01X37592Y17526D03*
G01X37592Y20066D03*
G01X37592Y22606D03*
G01X37592Y25146D03*
G01X37592Y27686D03*
G01X37592Y30226D03*
G01X37592Y32766D03*
G54D16*
G01X37592Y35306D03*
G54D17*
G01X50800Y26162D03*
G54D18*
G01X50800Y28702D03*
G01X7874Y33528D03*
G01X10414Y33528D03*
G54D17*
G01X12954Y33528D03*
G54D19*
G01X29718Y17780D03*
G01X22098Y17780D03*
G54D20*
G01X9652Y18669D03*
G01X9652Y23368D03*
G01X9652Y28067D03*
G54D21*
G01X29972Y12349D03*
G01X29972Y9809D03*
G54D19*
G01X30734Y34290D03*
G01X30734Y31750D03*
G01X30734Y29210D03*
G01X30734Y26670D03*
G01X30734Y24130D03*
G01X30734Y21590D03*
G54D22*
G01X53822Y8890D02*
G01X51841Y8890D01*
G01X55372Y20040D02*
G01X55372Y18059D01*
G01X50292Y20040D02*
G01X50292Y18059D01*
M00*
M02*
